         run       event       nTopo   nIdTracks  nTauTracks       nTaus      nMuons       nElec   nTrueElec   nFakeElec       nPhot   nTruePhot   nFakePhot
      431493  1096110158         307         445          74           5           1          15           0          15          13           0          13
      431493  1096111916         283         320          50           6           0           9           0           9          14           0          14
      431493  1096112143         266         389          47           4           1           1           0           1           2           0           2
      431493  1096113011         366         400          84          10           0           9           0           9          11           0          11
      431493  1096113187         272         317          65           6           0           8           0           8          14           0          14
      431493  1096113771         293         401          78           7           0          10           0          10          12           0          12
      431493  1096114154         361         566          89           7           1           7           0           7          17           0          17
      431493  1096114168         133         153          23           5           0           2           0           2           6           0           6
      431493  1096115980         388         521         137          11           0          21           0          21          22           0          22
      431493  1096116200         306         408          35           4           1           4           0           4          12           0          12
      431493  1096118782         294         354          91           7           1          11           0          11          23           0          23
      431493  1096119418         306         340          84           6           0           5           0           5           9           0           9
      431493  1096119460         228         312          12           2           0           2           0           2           5           0           5
      431493  1096120001         388         576         116           8           0          14           0          14          18           0          18
      431493  1096122174         300         412          71           8           0           4           0           4          24           0          24
      431493  1096123090         426         538         144          10           0          20           0          20          28           0          28
      431493  1096123254         484         682         117           8           1          14           0          14          27           0          27
      431493  1096123504         258         340          52           5           0           8           0           8          11           0          11
      431493  1096125003         349         449          84           7           0          10           0          10          17           0          17
      431493  1096125237         355         495          76           6           0           8           0           8          15           0          15
      431493  1096125348         295         346          63           6           2           8           0           8           8           0           8
      431493  1096125522         251         303          64           9           1           7           0           7          16           0          16
      431493  1096127413         396         579         105           7           1          11           0          11          22           0          22
      431493  1096127722         221         418          74           9           1           7           0           7           7           0           7
      431493  1096128475         167         251          30           5           0           1           0           1          11           0          11
      431493  1096128958         301         363          83           8           0          14           0          14          22           0          22
      431493  1096129516         301         434          33           4           1           2           0           2          12           0          12
      431493  1096130319         317         516          75           6           0          11           0          11          15           0          15
      431493  1096130794         338         449         113           8           1          15           0          15          20           0          20
      431493  1096131620         403         575         133          10           2          14           0          14          27           0          27
      431493  1096131904         322         439          78           8           0          12           0          12           9           0           9
      431493  1096132044         272         302          23           4           1           2           0           2           8           0           8
      431493  1096132412         330         387          58           7           2           5           0           5          11           0          11
      431493  1096132653         340         371          63           9           0           7           0           7          15           0          15
      431493  1096133511           1           0           0           0           0           0           0           0           0           0           0
      431493  1096133828         286         376          92           8           3          14           0          14          11           0          11
      431493  1096134918         628         932         286          13           1          19           0          19          35           0          35
      431493  1096137274         253         281          32           4           1           5           0           5           6           0           6
      431493  1096137322         412         584          86           5           1           4           0           4           9           0           9
      431493  1096137395         352         432          63           6           0           5           0           5          11           0          11
      431493  1096137906         161         179          20           4           2           5           0           5           7           0           7
      431493  1096139648         219         204          26           5           3           2           0           2           7           0           7
      431493  1096139847         239         367          35           5           2           1           0           1           7           0           7
      431493  1096142414         364         507         114           8           2           7           0           7          22           0          22
      431493  1096143027         397         500          84           9           2           3           0           3          11           0          11
      431493  1096144036         266         343          65           5           0          12           0          12          14           0          14
      431493  1096145110         241         258          18           2           0           4           0           4           8           0           8
      431493  1096146639         281         417          74           7           0           3           0           3          18           0          18
      431493  1096146735         320         376         106          11           2          20           0          20          26           0          26
      431493  1096147568         385         601          74           7           2           4           0           4          14           0          14
      431493  1096150983         270         318          27           6           0           2           0           2          13           0          13
      431493  1096152978         363         502          93           8           3           9           0           9          11           0          11
      431493  1096153967         536         657         102          10           2           7           0           7          33           0          33
      431493  1096155046         238         372          23           3           1           1           0           1           3           0           3
      431493  1096155387         333         484          75           8           1           7           0           7          15           0          15
      431493  1096155429         374         453          91           8           0           7           0           7          17           0          17
      431493  1096155463         352         459          80           7           0           4           0           4          13           0          13
      431493  1096156230         343         453          98           8           0          10           0          10          14           0          14
      431493  1096157777         241         357          55           6           1           2           0           2          10           0          10
      431493  1096159760         358         460          47           4           0           7           0           7          15           0          15
      431493  1096159903         231         277          60           8           0           9           0           9          14           0          14
      431493  1096160558         245         366          38           3           0           2           0           2          10           0          10
      431493  1096161183         246         316          60           5           0          12           0          12           8           0           8
      431493  1096162191         346         390          14           2           2           1           0           1           8           0           8
      431493  1096163035         343         447         114           9           0          15           0          15          25           0          25
      431493  1096163900         331         461          62           6           0          12           0          12          19           0          19
      431493  1096164842         306         435          45           5           1           3           0           3           9           0           9
      431493  1096167556         330         426          75           7           0           9           0           9          12           0          12
      431493  1096168429         297         412          99           8           0           6           0           6           8           0           8
      431493  1096171532         337         414          86           9           0          13           0          13          13           0          13
      431493  1096171788         303         440          58           4           0           9           0           9          12           0          12
      431493  1096171838         413         605         118           8           0          10           0          10          24           0          24
      431493  1096173554         313         423          46           5           1           4           0           4           9           0           9
      431493  1096173910         352         570          99           7           1          11           0          11          10           0          10
      431493  1096176781         364         441          89          10           1          11           0          11          19           0          19
      431493  1096177006         306         383          37           4           0           7           0           7          11           0          11
      431493  1096177862         250         284          13           2           0           2           0           2          11           0          11
      431493  1096177918         372         496          85           6           1           6           0           6          13           0          13
      431493  1096178101         359         437          27           4           0           1           0           1          10           0          10
      431493  1096178859         347         362          44           6           1           7           0           7          13           0          13
      431493  1096180059         374         437          22           3           1           2           0           2          22           0          22
      431493  1096181059         224         262          33           4           1           6           0           6          10           0          10
      431493  1096181128         362         557          82           8           2           6           0           6          14           0          14
      431493  1096182354         306         314          53           5           0          13           0          13          16           0          16
      431493  1096182555         237         356          57           7           1           6           0           6           9           0           9
      431493  1096183473         214         254          45           4           0          12           0          12           9           0           9
      431493  1096184610         380         420          98           7           1          17           0          17          10           0          10
      431493  1096185473         337         479          70           6           0           9           0           9          14           0          14
      431493  1096188650         206         289          39           4           0           5           0           5          12           0          12
      431493  1096190892         289         396          84           7           1           6           0           6          10           0          10
      431493  1096191815         268         350          47           5           1           6           0           6          16           0          16
      431493  1096194353         311         450          71           6           1           9           0           9          11           0          11
      431493  1096199978         275         444          84           7           1           9           0           9          11           0          11
      431493  1096205163         233         317          39           3           0           4           0           4          12           0          12
      431493  1096207298         389         464          56           5           0           1           0           1          16           0          16
      431493  1096209204         401         546          78           9           0           9           0           9          20           0          20
      431493  1096211915         327         371          62           6           1           7           0           7          18           0          18
      431493  1096218966         301         393          16           2           1           4           0           4          10           0          10
      431493  1096226529         319         399         101          10           1          11           0          11          14           0          14
      431493  1096229568         186         244          65          10           2           5           0           5          16           0          16
